{
  "page": 1,
  "results": [
    {
      "id": 603,
      "title": "The Matrix",
      "overview": "A computer hacker learns about the true nature of reality.",
      "poster_path": "/matrix.jpg",
      "backdrop_path": "/matrix-backdrop.jpg",
      "vote_average": 8.2,
      "vote_count": 24000,
      "release_date": "1999-03-31"
    }
  ],
  "total_pages": 5,
  "total_results": 100
}
